# volumetric concentration works

    Code
      output
    Output
      # A tibble: 1,251 x 2
         f_fluxid f_conc_vol
         <fct>         <dbl>
       1 1              19.4
       2 1              19.4
       3 1              19.5
       4 1              19.5
       5 1              19.5
       6 1              19.6
       7 1              19.6
       8 1              19.6
       9 1              19.7
      10 1              19.7
      # i 1,241 more rows
